{
	"configurations" : 
	[
		{
			"directories" : 
			[
				{
					"build" : ".",
					"jsonFile" : "directory-.-RelWithDebInfo-d0094a50bb2071803777.json",
					"minimumCMakeVersion" : 
					{
						"string" : "3.6"
					},
					"projectIndex" : 0,
					"source" : ".",
					"targetIndexes" : 
					[
						0
					]
				}
			],
			"name" : "RelWithDebInfo",
			"projects" : 
			[
				{
					"directoryIndexes" : 
					[
						0
					],
					"name" : "Project",
					"targetIndexes" : 
					[
						0
					]
				}
			],
			"targets" : 
			[
				{
					"directoryIndex" : 0,
					"id" : "opencv_jni_shared::@6890427a1f51a3e7e1df",
					"jsonFile" : "target-opencv_jni_shared-RelWithDebInfo-fc2ad18c32ff627c1f90.json",
					"name" : "opencv_jni_shared",
					"projectIndex" : 0
				}
			]
		}
	],
	"kind" : "codemodel",
	"paths" : 
	{
		"build" : "C:/Users/luqch/Desktop/finalFIGHT/SudokuSolver/android/opencvLibrary480/.cxx/RelWithDebInfo/423g45g4/x86_64",
		"source" : "C:/Users/luqch/Desktop/finalFIGHT/SudokuSolver/android/opencvLibrary480/libcxx_helper"
	},
	"version" : 
	{
		"major" : 2,
		"minor" : 3
	}
}
